<?xml version="1.0" encoding="UTF-8" standalone="no"?>
<!-- Created with Inkscape (http://www.inkscape.org/) -->

<svg
   xmlns:dc="http://purl.org/dc/elements/1.1/"
   xmlns:cc="http://creativecommons.org/ns#"
   xmlns:rdf="http://www.w3.org/1999/02/22-rdf-syntax-ns#"
   xmlns:svg="http://www.w3.org/2000/svg"
   xmlns="http://www.w3.org/2000/svg"
   xmlns:xlink="http://www.w3.org/1999/xlink"
   xmlns:sodipodi="http://sodipodi.sourceforge.net/DTD/sodipodi-0.dtd"
   xmlns:inkscape="http://www.inkscape.org/namespaces/inkscape"
   width="1455.7057"
   height="1455.7057"
   viewBox="0 0 385.15546 385.15547"
   version="1.1"
   id="svg8"
   inkscape:version="0.92.4 5da689c313, 2019-01-14"
   sodipodi:docname="web-porto.svg"
   inkscape:export-filename=""
   inkscape:export-xdpi="150"
   inkscape:export-ydpi="150">
  <defs
     id="defs2">
    <linearGradient
       id="linearGradient4067">
      <stop
         stop-color="#04cc1f"
         offset="0"
         id="stop4061"
         style="stop-color:#6617a8;stop-opacity:1" />
      <stop
         stop-color="#2ce1cb"
         offset=".52703"
         id="stop4063"
         style="stop-color:#130042;stop-opacity:1" />
      <stop
         stop-color="#3ade38"
         offset="1"
         id="stop4065"
         style="stop-color:#22069d;stop-opacity:1" />
    </linearGradient>
    <linearGradient
       id="linearGradient20532"
       x1="-5.0885"
       x2="208.73"
       y1="-126.03"
       y2="41.756001"
       gradientTransform="matrix(3.3602001,0,0,3.3602001,170.96932,-53.338074)"
       gradientUnits="userSpaceOnUse"
       xlink:href="#linearGradient4635" />
    <linearGradient
       id="linearGradient4635">
      <stop
         style="stop-color:#185ad1;stop-opacity:1"
         id="stop4629"
         offset="0"
         stop-color="#04cc1f" />
      <stop
         style="stop-color:#172893;stop-opacity:1"
         id="stop4631"
         offset=".52703"
         stop-color="#2ce1cb" />
      <stop
         style="stop-color:#2d71ee;stop-opacity:1"
         id="stop4633"
         offset="1"
         stop-color="#3ade38" />
    </linearGradient>
    <linearGradient
       id="linearGradient20532-7"
       x1="-5.0885"
       x2="208.73"
       y1="-126.03"
       y2="41.756001"
       gradientTransform="matrix(12.699969,0,0,12.699969,325.03935,1328.3906)"
       gradientUnits="userSpaceOnUse"
       xlink:href="#linearGradient4635" />
    <clipPath
       clipPathUnits="userSpaceOnUse"
       id="clipPath4079">
      <rect
         style="opacity:1;vector-effect:none;fill:#ffffff;fill-opacity:1;fill-rule:nonzero;stroke:none;stroke-width:1;stroke-linecap:butt;stroke-linejoin:miter;stroke-miterlimit:4;stroke-dasharray:none;stroke-dashoffset:0;stroke-opacity:1;paint-order:stroke fill markers"
         id="rect4081"
         width="298.77011"
         height="167.97618"
         x="574.04669"
         y="-313.60928" />
    </clipPath>
    <clipPath
       clipPathUnits="userSpaceOnUse"
       id="clipPath3716">
      <path
         style="fill:none;stroke:#000000;stroke-width:0.26458332px;stroke-linecap:butt;stroke-linejoin:miter;stroke-opacity:1"
         d="m 503.69562,180.31067 c 0,0 -9.35445,-9.35443 -11.4926,-13.63075 -2.13815,-4.27631 -2.93997,-15.23436 -1.06907,-17.10525 1.87089,-1.87088 4.54358,-3.20723 4.81084,-6.949 0.26728,-3.74178 1.06905,-20.57976 1.06905,-20.57976 0,0 0.53459,-6.68173 4.00907,-12.29439 3.47451,-5.61266 5.61266,-9.08717 7.75084,-12.561672 2.13815,-3.474503 -0.53454,-1.603616 5.07812,-7.216278 5.61266,-5.612659 6.68173,-7.750815 9.88896,-9.621702 3.20722,-1.870888 15.7689,-3.207234 20.0452,-3.207234 4.27633,0 10.95806,0 10.95806,0 0,0 1.8709,0 5.34538,0 3.47451,0 18.70885,-1.336347 18.70885,-1.336347 h 13.09624 c 0,0 0,1.069078 4.00902,3.741771 4.00907,2.672697 7.2163,0.80181 8.28537,4.543584 1.06908,3.741772 1.33636,6.681738 1.8709,8.018084 0.53451,1.33635 4.81084,3.474506 9.08714,4.276313 4.27633,0.801809 6.94899,-1.603616 9.62173,2.405427 2.67269,4.009044 5.61266,7.750814 6.41445,9.888974 0.80182,2.13815 4.54359,8.81989 4.81087,9.88897 0.26723,1.06908 2.13815,2.93996 0,5.61266 -2.13818,2.6727 -6.68176,4.00904 -2.67274,5.61266 4.00907,1.60362 9.88901,4.54358 9.88901,4.54358 0,0 2.13815,0.53454 1.06908,3.47451 -1.06908,2.93996 -5.87997,9.35443 -5.87997,11.49259 0,2.13815 -0.53451,3.4745 2.67274,7.21627 3.20723,3.74178 5.07812,4.00905 4.54356,6.68174 -0.53451,2.6727 0,6.1472 -2.13815,8.8199 -2.13818,2.67269 -1.06908,2.93996 -5.07815,4.54358 -4.00902,1.60361 -1.06905,3.4745 -10.95801,5.07812 -9.88899,1.60361 -30.20145,2.93996 -34.74503,3.20723 -4.54361,0.26727 -21.11431,-0.80181 -26.72699,0.26727 -5.61266,1.06908 -17.37249,1.33635 -20.847,1.33635 -3.47451,0 -7.21627,1.33635 -15.7689,-1.06908 -8.55263,-2.40542 -14.16529,-3.20723 -14.16529,-3.20723 z"
         id="path3718"
         inkscape:connector-curvature="0" />
    </clipPath>
    <filter
       inkscape:collect="always"
       style="color-interpolation-filters:sRGB"
       id="filter860"
       x="-0.093733528"
       width="1.1874671"
       y="-0.16671875"
       height="1.3334375">
      <feGaussianBlur
         inkscape:collect="always"
         stdDeviation="14.115521"
         id="feGaussianBlur862" />
    </filter>
    <linearGradient
       inkscape:collect="always"
       xlink:href="#linearGradient5017"
       id="linearGradient4059-3"
       gradientUnits="userSpaceOnUse"
       gradientTransform="matrix(12.699969,0,0,12.699969,691.03606,86.740439)"
       x1="-43.388775"
       y1="36.701515"
       x2="60.210354"
       y2="79.221306" />
    <linearGradient
       id="linearGradient5017">
      <stop
         style="stop-color:#206b97;stop-opacity:1"
         id="stop5011"
         offset="0"
         stop-color="#04cc1f" />
      <stop
         style="stop-color:#289bb5;stop-opacity:1"
         id="stop5013"
         offset="0.47750729"
         stop-color="#2ce1cb" />
      <stop
         style="stop-color:#169a6c;stop-opacity:1"
         id="stop5015"
         offset="1"
         stop-color="#3ade38" />
    </linearGradient>
    <filter
       style="color-interpolation-filters:sRGB"
       inkscape:label="Drop Shadow"
       id="filter5003">
      <feFlood
         flood-opacity="0.666667"
         flood-color="rgb(0,0,0)"
         result="flood"
         id="feFlood4993" />
      <feComposite
         in="flood"
         in2="SourceGraphic"
         operator="in"
         result="composite1"
         id="feComposite4995" />
      <feGaussianBlur
         in="composite1"
         stdDeviation="24.1"
         result="blur"
         id="feGaussianBlur4997" />
      <feOffset
         dx="0"
         dy="0"
         result="offset"
         id="feOffset4999" />
      <feComposite
         in="SourceGraphic"
         in2="offset"
         operator="over"
         result="composite2"
         id="feComposite5001" />
    </filter>
  </defs>
  <sodipodi:namedview
     id="base"
     pagecolor="#ffffff"
     bordercolor="#666666"
     borderopacity="1.0"
     inkscape:pageopacity="0.0"
     inkscape:pageshadow="2"
     inkscape:zoom="0.35"
     inkscape:cx="518.47026"
     inkscape:cy="808.61445"
     inkscape:document-units="px"
     inkscape:current-layer="layer2"
     showgrid="false"
     units="px"
     inkscape:snap-page="true"
     inkscape:window-width="1348"
     inkscape:window-height="726"
     inkscape:window-x="8"
     inkscape:window-y="32"
     inkscape:window-maximized="1"
     inkscape:snap-global="true"
     inkscape:object-paths="true"
     inkscape:snap-intersection-paths="true" />
  <metadata
     id="metadata5">
    <rdf:RDF>
      <cc:Work
         rdf:about="">
        <dc:format>image/svg+xml</dc:format>
        <dc:type
           rdf:resource="http://purl.org/dc/dcmitype/StillImage" />
        <dc:title />
      </cc:Work>
    </rdf:RDF>
  </metadata>
  <g
     inkscape:label="background"
     inkscape:groupmode="layer"
     id="layer1"
     transform="translate(11.867307,76.288147)"
     style="display:inline"
     sodipodi:insensitive="true">
    <rect
       style="opacity:1;vector-effect:none;fill:#e3f5f9;fill-opacity:1;fill-rule:nonzero;stroke:none;stroke-width:0.28224057;stroke-linecap:butt;stroke-linejoin:miter;stroke-miterlimit:4;stroke-dasharray:none;stroke-dashoffset:0;stroke-opacity:1;paint-order:stroke fill markers"
       id="rect1168"
       width="385.15546"
       height="385.15546"
       x="-11.867307"
       y="-76.288147"
       inkscape:export-xdpi="197.84221"
       inkscape:export-ydpi="197.84221" />
    <rect
       style="opacity:1;vector-effect:none;fill:#10364c;fill-opacity:1;fill-rule:nonzero;stroke:none;stroke-width:0.26484793;stroke-linecap:butt;stroke-linejoin:miter;stroke-miterlimit:4;stroke-dasharray:none;stroke-dashoffset:0;stroke-opacity:1;paint-order:stroke fill markers;filter:url(#filter860)"
       id="rect896"
       width="361.42084"
       height="203.2"
       x="-1.2011719e-06"
       y="14.689573"
       transform="matrix(0.84302805,0,0,0.84302805,28.366468,41.537549)" />
    <path
       style="display:inline;opacity:1;vector-effect:none;fill:url(#linearGradient4059-3);fill-opacity:1;fill-rule:nonzero;stroke:none;stroke-width:3.77952743;stroke-linecap:butt;stroke-linejoin:miter;stroke-miterlimit:4;stroke-dasharray:none;stroke-dashoffset:0;stroke-opacity:1;paint-order:stroke fill markers"
       clip-path="none"
       d="M 44.853516,343.85352 V 1111.8535 H 1410.8535 V 343.85352 Z"
       transform="matrix(0.26458333,0,0,0.26458333,-11.867307,-76.288147)"
       id="rect4819"
       inkscape:connector-curvature="0"
       sodipodi:nodetypes="ccccc" />
  </g>
  <g
     inkscape:groupmode="layer"
     id="layer2"
     inkscape:label="desain"
     style="display:inline" />
  <g
     inkscape:groupmode="layer"
     id="layer3"
     inkscape:label="text"
     style="display:inline"
     sodipodi:insensitive="true">
    <g
       transform="translate(11.867307,76.288146)"
       style="display:inline"
       id="g914">
      <text
         id="text821"
         y="129.79156"
         x="11.626222"
         style="font-style:normal;font-variant:normal;font-weight:normal;font-stretch:normal;font-size:6.57429028px;line-height:1.25;font-family:'Source Sans Pro';-inkscape-font-specification:'Source Sans Pro, Normal';font-variant-ligatures:normal;font-variant-caps:normal;font-variant-numeric:normal;font-feature-settings:normal;text-align:start;letter-spacing:0px;word-spacing:0px;writing-mode:lr-tb;text-anchor:start;fill:#ffffff;fill-opacity:1;stroke:none;stroke-width:0.26458332"
         xml:space="preserve"><tspan
           style="fill:#ffffff;stroke-width:0.26458332"
           y="129.79156"
           x="11.626222"
           id="tspan819"
           sodipodi:role="line"></tspan><tspan
           id="tspan823"
           style="fill:#ffffff;stroke-width:0.26458332"
           y="138.83121"
           x="11.626222"
           sodipodi:role="line"></tspan><tspan
           id="tspan825"
           style="fill:#ffffff;stroke-width:0.26458332"
           y="147.87086"
           x="11.626222"
           sodipodi:role="line"></tspan><tspan
           id="tspan827"
           style="fill:#ffffff;stroke-width:0.26458332"
           y="156.91051"
           x="11.626222"
           sodipodi:role="line"></tspan><tspan
           id="tspan829"
           style="fill:#ffffff;stroke-width:0.26458332"
           y="165.95016"
           x="11.626222"
           sodipodi:role="line"></tspan></text>
      <text
         id="text833"
         y="81.095108"
         x="46.042603"
         style="font-style:normal;font-variant:normal;font-weight:bold;font-stretch:normal;font-size:20.18355942px;line-height:1.25;font-family:'Source Sans Pro';-inkscape-font-specification:'Source Sans Pro, Bold';font-variant-ligatures:normal;font-variant-caps:normal;font-variant-numeric:normal;font-feature-settings:normal;text-align:start;letter-spacing:0px;word-spacing:0px;writing-mode:lr-tb;text-anchor:start;fill:#ffffff;fill-opacity:1;stroke:none;stroke-width:0.26458332"
         xml:space="preserve"><tspan
           style="font-style:normal;font-variant:normal;font-weight:bold;font-stretch:normal;font-size:20.18355942px;font-family:'Source Sans Pro';-inkscape-font-specification:'Source Sans Pro, Bold';font-variant-ligatures:normal;font-variant-caps:normal;font-variant-numeric:normal;font-feature-settings:normal;text-align:start;writing-mode:lr-tb;text-anchor:start;fill:#ffffff;stroke-width:0.26458332"
           y="81.095108"
           x="46.042603"
           sodipodi:role="line"
           id="tspan4069">NO MORE</tspan><tspan
           style="font-style:normal;font-variant:normal;font-weight:bold;font-stretch:normal;font-size:20.18355942px;font-family:'Source Sans Pro';-inkscape-font-specification:'Source Sans Pro, Bold';font-variant-ligatures:normal;font-variant-caps:normal;font-variant-numeric:normal;font-feature-settings:normal;text-align:start;writing-mode:lr-tb;text-anchor:start;fill:#ffffff;stroke-width:0.26458332"
           y="106.32455"
           x="46.042603"
           sodipodi:role="line"
           id="tspan3712">LONELY</tspan></text>
      <g
         transform="matrix(0.26458333,0,0,0.26458333,38.60111,29.53228)"
         id="g903">
        <path
           inkscape:connector-curvature="0"
           word-spacing="0"
           letter-spacing="-7.51"
           font-size="40"
           font-weight="900"
           style="font-weight:900;font-size:40px;line-height:1.25;font-family:'Source Sans Pro';-inkscape-font-specification:'Source Sans Pro, Heavy';font-variant-ligatures:normal;font-variant-caps:normal;font-variant-numeric:normal;font-feature-settings:normal;text-align:start;letter-spacing:-7.51000023;word-spacing:0;fill:#ffffff"
           d="m 30.714,0.001 c -3.873,0 -7.064,1.4 -9.196,4.016 V 0.48 H 14.64 v 9.681 H 6.88 V 0.481 H 0 v 26 h 6.88 v -10.32 h 7.76 v 10.32 h 6.88 v -3.67 c 1.529,1.923 3.6,3.224 6.075,3.789 2,4.32 6.08,7.4 11.92,7.4 2.2,0 3.921,-0.4 4.961,-0.96 l -1.2,-4.96 c -0.8,0.28 -1.84,0.479 -2.96,0.479 -1.96,0 -4.28,-0.559 -5.48,-2.239 4.88,-1.6 7.959,-6.16 7.959,-12.96 C 42.795,4.84 37.915,0 30.715,0 Z m 0,5.92 c 3.12,0 5.04,2.72 5.04,7.44 0,5.12 -1.92,8 -5.04,8 -3.12,0 -5.04,-2.88 -5.04,-8 0,-4.72 1.92,-7.44 5.04,-7.44 z"
           id="path889" />
        <path
           style="fill:#ffff00;paint-order:stroke fill markers"
           inkscape:connector-curvature="0"
           d="m 50.599,22.904 a 3.95,3.95 0 0 1 -3.95,3.95 3.95,3.95 0 0 1 -3.95,-3.95 3.95,3.95 0 0 1 3.95,-3.95 3.95,3.95 0 0 1 3.95,3.95 z"
           id="path891" />
      </g>
      <text
         xml:space="preserve"
         style="font-style:normal;font-variant:normal;font-weight:bold;font-stretch:normal;font-size:5.9585228px;line-height:1.25;font-family:'Source Sans Pro';-inkscape-font-specification:'Source Sans Pro, Bold';font-variant-ligatures:normal;font-variant-caps:normal;font-variant-numeric:normal;font-feature-settings:normal;text-align:start;letter-spacing:0px;word-spacing:0px;writing-mode:lr-tb;text-anchor:start;fill:#ffffff;fill-opacity:1;stroke:none;stroke-width:0.26458332"
         x="165.20868"
         y="35.836193"
         id="text907"><tspan
           sodipodi:role="line"
           id="tspan905"
           x="165.20868"
           y="35.836193"
           style="font-style:normal;font-variant:normal;font-weight:bold;font-stretch:normal;font-size:5.9585228px;font-family:'Source Sans Pro';-inkscape-font-specification:'Source Sans Pro, Bold';font-variant-ligatures:normal;font-variant-caps:normal;font-variant-numeric:normal;font-feature-settings:normal;text-align:start;writing-mode:lr-tb;text-anchor:start;fill:#ffffff;stroke-width:0.26458332">BERANDA</tspan></text>
      <text
         id="text911"
         y="35.836193"
         x="197.81555"
         style="font-style:normal;font-variant:normal;font-weight:bold;font-stretch:normal;font-size:5.9585228px;line-height:1.25;font-family:'Source Sans Pro';-inkscape-font-specification:'Source Sans Pro, Bold';font-variant-ligatures:normal;font-variant-caps:normal;font-variant-numeric:normal;font-feature-settings:normal;text-align:start;letter-spacing:0px;word-spacing:0px;writing-mode:lr-tb;text-anchor:start;fill:#ffffff;fill-opacity:1;stroke:none;stroke-width:0.26458332"
         xml:space="preserve"><tspan
           style="font-style:normal;font-variant:normal;font-weight:bold;font-stretch:normal;font-size:5.9585228px;font-family:'Source Sans Pro';-inkscape-font-specification:'Source Sans Pro, Bold';font-variant-ligatures:normal;font-variant-caps:normal;font-variant-numeric:normal;font-feature-settings:normal;text-align:start;writing-mode:lr-tb;text-anchor:start;fill:#ffffff;stroke-width:0.26458332"
           y="35.836193"
           x="197.81555"
           id="tspan909"
           sodipodi:role="line">BLOG</tspan></text>
      <text
         xml:space="preserve"
         style="font-style:normal;font-variant:normal;font-weight:bold;font-stretch:normal;font-size:5.9585228px;line-height:1.25;font-family:'Source Sans Pro';-inkscape-font-specification:'Source Sans Pro, Bold';font-variant-ligatures:normal;font-variant-caps:normal;font-variant-numeric:normal;font-feature-settings:normal;text-align:start;letter-spacing:0px;word-spacing:0px;writing-mode:lr-tb;text-anchor:start;fill:#ffffff;fill-opacity:1;stroke:none;stroke-width:0.26458332"
         x="220.13257"
         y="35.836193"
         id="text915"><tspan
           sodipodi:role="line"
           id="tspan913"
           x="220.13257"
           y="35.836193"
           style="font-style:normal;font-variant:normal;font-weight:bold;font-stretch:normal;font-size:5.9585228px;font-family:'Source Sans Pro';-inkscape-font-specification:'Source Sans Pro, Bold';font-variant-ligatures:normal;font-variant-caps:normal;font-variant-numeric:normal;font-feature-settings:normal;text-align:start;writing-mode:lr-tb;text-anchor:start;fill:#ffffff;stroke-width:0.26458332">TEMA</tspan></text>
      <text
         id="text919"
         y="35.836193"
         x="242.31592"
         style="font-style:normal;font-variant:normal;font-weight:bold;font-stretch:normal;font-size:5.9585228px;line-height:1.25;font-family:'Source Sans Pro';-inkscape-font-specification:'Source Sans Pro, Bold';font-variant-ligatures:normal;font-variant-caps:normal;font-variant-numeric:normal;font-feature-settings:normal;text-align:start;letter-spacing:0px;word-spacing:0px;writing-mode:lr-tb;text-anchor:start;fill:#ffffff;fill-opacity:1;stroke:none;stroke-width:0.26458332"
         xml:space="preserve"><tspan
           style="font-style:normal;font-variant:normal;font-weight:bold;font-stretch:normal;font-size:5.9585228px;font-family:'Source Sans Pro';-inkscape-font-specification:'Source Sans Pro, Bold';font-variant-ligatures:normal;font-variant-caps:normal;font-variant-numeric:normal;font-feature-settings:normal;text-align:start;writing-mode:lr-tb;text-anchor:start;fill:#ffffff;stroke-width:0.26458332"
           y="35.836193"
           x="242.31592"
           id="tspan917"
           sodipodi:role="line">PORTOFOLIO</tspan></text>
      <text
         xml:space="preserve"
         style="font-style:normal;font-variant:normal;font-weight:bold;font-stretch:normal;font-size:5.9585228px;line-height:1.25;font-family:'Source Sans Pro';-inkscape-font-specification:'Source Sans Pro, Bold';font-variant-ligatures:normal;font-variant-caps:normal;font-variant-numeric:normal;font-feature-settings:normal;text-align:start;letter-spacing:0px;word-spacing:0px;writing-mode:lr-tb;text-anchor:start;fill:#ffffff;fill-opacity:1;stroke:none;stroke-width:0.26458332"
         x="282.67365"
         y="35.836193"
         id="text923"><tspan
           sodipodi:role="line"
           id="tspan921"
           x="282.67365"
           y="35.836193"
           style="font-style:normal;font-variant:normal;font-weight:bold;font-stretch:normal;font-size:5.9585228px;font-family:'Source Sans Pro';-inkscape-font-specification:'Source Sans Pro, Bold';font-variant-ligatures:normal;font-variant-caps:normal;font-variant-numeric:normal;font-feature-settings:normal;text-align:start;writing-mode:lr-tb;text-anchor:start;fill:#ffffff;stroke-width:0.26458332">PROFIL</tspan></text>
      <text
         id="text927"
         y="35.836193"
         x="308.86609"
         style="font-style:normal;font-variant:normal;font-weight:bold;font-stretch:normal;font-size:5.9585228px;line-height:1.25;font-family:'Source Sans Pro';-inkscape-font-specification:'Source Sans Pro, Bold';font-variant-ligatures:normal;font-variant-caps:normal;font-variant-numeric:normal;font-feature-settings:normal;text-align:start;letter-spacing:0px;word-spacing:0px;writing-mode:lr-tb;text-anchor:start;fill:#ffffff;fill-opacity:1;stroke:none;stroke-width:0.26458332"
         xml:space="preserve"><tspan
           style="font-style:normal;font-variant:normal;font-weight:bold;font-stretch:normal;font-size:5.9585228px;font-family:'Source Sans Pro';-inkscape-font-specification:'Source Sans Pro, Bold';font-variant-ligatures:normal;font-variant-caps:normal;font-variant-numeric:normal;font-feature-settings:normal;text-align:start;writing-mode:lr-tb;text-anchor:start;fill:#ffffff;stroke-width:0.26458332"
           y="35.836193"
           x="308.86609"
           id="tspan925"
           sodipodi:role="line">FAQ</tspan></text>
      <rect
         style="opacity:1;vector-effect:none;fill:#41daed;fill-opacity:1;fill-rule:nonzero;stroke:none;stroke-width:0.22421412px;stroke-linecap:butt;stroke-linejoin:miter;stroke-miterlimit:4;stroke-dasharray:none;stroke-dashoffset:0;stroke-opacity:1;paint-order:stroke fill markers"
         id="rect3227"
         width="24.567621"
         height="1.07277"
         x="165.66745"
         y="37.669399" />
      <g
         id="g1615"
         transform="matrix(0.85885092,0,0,0.85885092,4.1388996,37.784793)"
         style="fill:#ffffff">
        <path
           style="opacity:1;vector-effect:none;fill:#ffffff;fill-opacity:1;fill-rule:nonzero;stroke:none;stroke-width:2.15026736;stroke-linecap:round;stroke-linejoin:round;stroke-miterlimit:4;stroke-dasharray:none;stroke-dashoffset:0;stroke-opacity:1;paint-order:stroke fill markers"
           d="m 243.02539,768.36328 c -9.55627,0 -17.25,7.69178 -17.25,17.24805 0,9.55627 7.69373,17.25 17.25,17.25 h 109.72656 c 9.55627,0 17.25,-7.69373 17.25,-17.25 0,-9.55627 -7.69373,-17.24805 -17.25,-17.24805 z m 102.54102,9.64453 h 2.43554 v 14.95508 h -2.01172 l -0.16992,-1.12305 h -0.084 c -0.76265,0.76266 -1.82252,1.37696 -2.94531,1.37696 -2.60574,0 -4.2793,-2.01141 -4.2793,-5.44336 0,-3.38956 2.13947,-5.4668 4.40625,-5.4668 1.18635,0 1.9274,0.44543 2.73242,1.14453 l -0.084,-1.67383 z m -91.24414,0.84571 c 1.97019,0 3.32479,0.86999 4.19335,1.75976 l -1.3125,1.58789 c -0.69908,-0.6779 -1.5046,-1.20703 -2.79687,-1.20703 -2.45744,0 -4.10937,1.90733 -4.10937,5.02148 -10e-6,3.15656 1.46111,5.0625 4.23632,5.0625 0.78384,2e-5 1.54731,-0.21269 1.99219,-0.61523 v -2.98633 h -2.62695 v -2.01172 h 4.83008 v 6.09961 c -0.93214,0.93214 -2.54229,1.65235 -4.42774,1.65235 -3.74971,0 -6.52539,-2.54155 -6.52539,-7.13868 0,-4.53352 2.86072,-7.2246 6.54688,-7.2246 z m 34.24414,0 c 1.61004,0 3.17934,0.67931 4.25976,1.75976 l -1.25,1.56641 c -0.88976,-0.74147 -1.82341,-1.18555 -3.00976,-1.18555 -1.31346,0 -2.18164,0.614 -2.18164,1.63086 0,1.08042 1.05914,1.48315 2.20312,1.94922 l 1.88672,0.7832 c 1.63123,0.6991 2.79492,1.73745 2.79492,3.75 0,2.24559 -1.86434,4.10938 -4.97851,4.10938 -1.86427,0 -3.68459,-0.74092 -4.99805,-2.03321 l 1.43945,-1.67382 c 0.99569,0.93213 2.33048,1.56835 3.60156,1.56835 1.56768,0 2.41602,-0.69888 2.41602,-1.77929 0,-1.14401 -0.89073,-1.50358 -2.14062,-2.03321 l -1.90626,-0.82812 c -1.35581,-0.57199 -2.79687,-1.6518 -2.79687,-3.68555 0,-2.20322 1.9485,-3.89843 4.66016,-3.89843 z m -15.625,0.86914 h 2.03515 v 2.83984 h 2.64844 v 1.92773 h -2.64844 v 4.95704 c 0,1.22872 0.46525,1.82226 1.46094,1.82226 0.36014,0 0.78349,-0.10713 1.08008,-0.23437 l 0.42383,1.80078 c -0.57199,0.1908 -1.29098,0.38086 -2.11719,0.38086 -2.41507,0 -3.30469,-1.52395 -3.30469,-3.76953 v -4.95704 h -1.48437 v -1.82226 l 1.61132,-0.10547 z m 22.88281,0 h 2.0332 v 2.83984 h 2.64844 v 1.92773 h -2.64844 v 4.95704 c 0,1.22872 0.46525,1.82226 1.46094,1.82226 0.36014,0 0.78544,-0.10713 1.08203,-0.23437 l 0.42188,1.80078 c -0.57199,0.1908 -1.29098,0.38086 -2.11719,0.38086 -2.41507,0 -3.30469,-1.52395 -3.30469,-3.76953 v -4.95704 h -1.48437 v -1.82226 l 1.61132,-0.10547 z m 26.02539,0 h 2.0332 v 2.83984 h 2.64844 v 1.92773 h -2.64844 v 4.95704 c 0,1.22872 0.46721,1.82226 1.46289,1.82226 0.36015,0 0.78349,-0.10713 1.08008,-0.23437 l 0.42383,1.80078 c -0.57199,0.1908 -1.29293,0.38086 -2.11914,0.38086 -2.41507,0 -3.30469,-1.52395 -3.30469,-3.76953 v -4.95704 h -1.48242 v -1.82226 l 1.60937,-0.10547 z m -56.13281,2.58398 c 2.81758,0 4.30078,2.03517 4.30078,4.9375 0,0.46607 -0.0419,0.93138 -0.10547,1.18555 h -6.60938 c 0.21185,1.84307 1.39867,2.90234 3.07227,2.90234 0.88976,0 1.65141,-0.27449 2.41406,-0.76172 l 0.82617,1.52539 c -0.99568,0.65674 -2.24513,1.1211 -3.55859,1.1211 -2.88114,0 -5.12695,-2.01141 -5.12695,-5.44336 0,-3.38956 2.35085,-5.4668 4.78711,-5.4668 z m 40.65429,0 c 2.58455,0 3.87696,1.58986 3.87696,4.49219 v 6.16406 h -2.01367 l -0.16993,-1.14258 h -0.084 c -0.93213,0.78386 -1.99199,1.39649 -3.2207,1.39649 -1.8219,0 -3.07032,-1.22695 -3.07032,-3.04883 0,-2.22442 1.84176,-3.39136 6.1211,-3.85742 -0.0424,-1.10162 -0.48687,-2.03321 -1.90625,-2.03321 -1.01687,0 -1.9917,0.46676 -2.92383,1.01758 l -0.88867,-1.63086 c 1.14398,-0.72026 2.62688,-1.35742 4.27929,-1.35742 z m 12.00391,0 c 0.52962,0 0.86779,0.0645 1.18555,0.21289 l -0.42383,2.11914 c -0.36014,-0.10582 -0.6352,-0.16992 -1.08008,-0.16992 -0.82621,0 -1.82149,0.57099 -2.45703,2.13867 v 6.35547 h -2.4375 v -10.40234 h 2.01367 l 0.16992,1.84375 h 0.084 c 0.74147,-1.35581 1.8437,-2.09766 2.94531,-2.09766 z m 14.125,0 c 2.81758,0 4.29883,2.03517 4.29883,4.9375 0,0.46607 -0.0419,0.93138 -0.10547,1.18555 h -6.60938 c 0.21185,1.84307 1.39867,2.90234 3.07227,2.90234 0.88976,0 1.65141,-0.27449 2.41406,-0.76172 l 0.82617,1.52539 c -0.99568,0.65674 -2.24513,1.1211 -3.55859,1.1211 -2.88114,0 -5.12695,-2.01141 -5.12695,-5.44336 0,-3.38956 2.35281,-5.4668 4.78906,-5.4668 z m -66.71875,1.88672 c -1.22872,0 -2.28816,0.91038 -2.5,2.58398 h 4.61719 c 0,-1.61004 -0.69781,-2.58398 -2.11719,-2.58398 z m 66.78125,0 c -1.22872,0 -2.28816,0.91038 -2.5,2.58398 h 4.61914 c 0,-1.61004 -0.69976,-2.58398 -2.11914,-2.58398 z m 10.88477,0.12695 c -1.33465,0 -2.41407,1.24962 -2.41407,3.43164 0,2.24562 0.84744,3.45313 2.35157,3.45313 0.80502,0 1.48253,-0.361 2.18164,-1.16602 v -4.84961 c -0.72029,-0.63551 -1.42005,-0.86914 -2.11914,-0.86914 z m -35.63672,3.51563 c -2.83877,0.36015 -3.77149,1.10257 -3.77149,2.14062 0,0.93214 0.63728,1.33399 1.50586,1.33399 0.8474,0 1.48179,-0.42232 2.26563,-1.14258 z"
           transform="matrix(0.30806666,0,0,0.30806666,-18.953893,-110.74002)"
           id="rect1574"
           inkscape:connector-curvature="0" />
      </g>
      <flowRoot
         xml:space="preserve"
         id="flowRoot2811"
         style="font-style:normal;font-variant:normal;font-weight:normal;font-stretch:normal;font-size:24px;line-height:1.25;font-family:'Source Sans Pro';-inkscape-font-specification:'Source Sans Pro, Normal';font-variant-ligatures:normal;font-variant-caps:normal;font-variant-numeric:normal;font-feature-settings:normal;text-align:start;letter-spacing:0px;word-spacing:0px;writing-mode:lr-tb;text-anchor:start;fill:#ffffff;fill-opacity:1;stroke:none"
         transform="matrix(0.24854098,0,0,0.24854098,-8.7405444,-61.400465)"><flowRegion
           id="flowRegion2813"
           style="font-style:normal;font-variant:normal;font-weight:normal;font-stretch:normal;font-size:24px;font-family:'Source Sans Pro';-inkscape-font-specification:'Source Sans Pro, Normal';font-variant-ligatures:normal;font-variant-caps:normal;font-variant-numeric:normal;font-feature-settings:normal;text-align:start;writing-mode:lr-tb;text-anchor:start;fill:#ffffff"><rect
             id="rect2815"
             width="481.91269"
             height="156.10478"
             x="226"
             y="709.70569"
             style="font-style:normal;font-variant:normal;font-weight:normal;font-stretch:normal;font-size:24px;font-family:'Source Sans Pro';-inkscape-font-specification:'Source Sans Pro, Normal';font-variant-ligatures:normal;font-variant-caps:normal;font-variant-numeric:normal;font-feature-settings:normal;text-align:start;writing-mode:lr-tb;text-anchor:start;fill:#ffffff" /></flowRegion><flowPara
           id="flowPara2817"
           style="font-style:normal;font-variant:normal;font-weight:normal;font-stretch:normal;font-size:24px;font-family:'Source Sans Pro';-inkscape-font-specification:'Source Sans Pro, Normal';font-variant-ligatures:normal;font-variant-caps:normal;font-variant-numeric:normal;font-feature-settings:normal;text-align:start;writing-mode:lr-tb;text-anchor:start;fill:#ffffff">Lorem ipsum dolor sit amet, consectetuer adipiscing elit. Mauris sed nulla quis nisi interdum tempor. Praesent a lacus vitae.</flowPara></flowRoot>      <g
         style="display:inline"
         id="g1615-5"
         transform="matrix(0.85885092,0,0,0.85885092,45.76302,37.784805)">
        <rect
           ry="5.0020714"
           y="126.61024"
           x="51.317009"
           height="10.004143"
           width="37.030491"
           id="rect1574-4"
           style="opacity:1;vector-effect:none;fill:none;fill-opacity:1;fill-rule:nonzero;stroke:#ffffff;stroke-width:0.62353933;stroke-linecap:round;stroke-linejoin:round;stroke-miterlimit:4;stroke-dasharray:none;stroke-dashoffset:0;stroke-opacity:1;paint-order:stroke fill markers" />
        <text
           id="text1570"
           y="133.73926"
           x="55.662144"
           style="font-style:normal;font-variant:normal;font-weight:600;font-stretch:normal;font-size:6.11194324px;line-height:1.25;font-family:'Source Sans Pro';-inkscape-font-specification:'Source Sans Pro, Semi-Bold';font-variant-ligatures:normal;font-variant-caps:normal;font-variant-numeric:normal;font-feature-settings:normal;text-align:start;letter-spacing:0px;word-spacing:0px;writing-mode:lr-tb;text-anchor:start;fill:#ffffff;fill-opacity:1;stroke:none;stroke-width:0.0801209"
           xml:space="preserve"><tspan
             style="font-style:normal;font-variant:normal;font-weight:600;font-stretch:normal;font-size:6.11194324px;font-family:'Source Sans Pro';-inkscape-font-specification:'Source Sans Pro, Semi-Bold';font-variant-ligatures:normal;font-variant-caps:normal;font-variant-numeric:normal;font-feature-settings:normal;text-align:start;writing-mode:lr-tb;text-anchor:start;fill:#ffffff;fill-opacity:1;stroke-width:0.0801209"
             y="133.73926"
             x="55.662144"
             sodipodi:role="line"
             id="tspan1568">Join Slack!</tspan></text>
      </g>
    </g>
  </g>
</svg>
